Complete Listing of Original Samples of Underlying Raw Evidence • unsum
…
#>            <int>      <int>      <int> <dbl>         <dbl>
#> 1             15       5359     696670 0.881           0.5
#> 
#> $frequency
#> # A tibble: 5 × 4
#>   value f_average f_absolute f_relative
#>   <int>     <dbl>      <int>      <dbl>
#> 1     1     67.0      358972     0.515 
#> 2     2      5.63      30170     0.0433
#> 3     3      4.09      21940     0.0315
#> 4     4      5.63      30162     0.0433
#> 5     5     47.7      255426     0.367 
#> 
#> $results
#> # A tibble: 5,359 × 2
#>       id combination
#>    <int> <list>     
#>  1     1 <int [130]>
#>  2     2 <int [130]>
#>  3     3 <int [130]>
#>  4     4 <int [130]>
#>  5     5 <int [130]>
#>  6     6 <int [130]>
#>  7     7 <int [130]>
#>  8     8 <int [130]>
#>  9     9 <int [130]>
#> 10    10 <int [130]>
#> # ℹ 5,349 more rows
…
