…
``` r
library(closure)

data <- closure_combine(
  mean = "2.7",
  sd = "1.9",
  n = 100,
  scale_min = 1,
  scale_max = 5
)

# Columns run from 1 to `n`, rows are combinations
data
#> $results
#> # A tibble: 216 × 100
#>       n1    n2    n3    n4    n5    n6    n7    n8    n9   n10   n11   n12   n13
#>    <int> <int> <int> <int> <int> <int> <int> <int> <int> <int> <int> <int> <int>
#>  1     1     1     1     1     1     1     1     1     1     1     1     1     1
#>  2     1     1     1     1     1     1     1     1     1     1     1     1     1
#>  3     1     1     1     1     1     1     1     1     1     1     1     1     1
#>  4     1     1     1     1     1     1     1     1     1     1     1     1     1
#>  5     1     1     1     1     1     1     1     1     1     1     1     1     1
#>  6     1     1     1     1     1     1     1     1     1     1     1     1     1
#>  7     1     1     1     1     1     1     1     1     1     1     1     1     1
#>  8     1     1     1     1     1     1     1     1     1     1     1     1     1
#>  9     1     1     1     1     1     1     1     1     1     1     1     1     1
#> 10     1     1     1     1     1     1     1     1     1     1     1     1     1
#> # ℹ 206 more rows
#> # ℹ 87 more variables: n14 <int>, n15 <int>, n16 <int>, n17 <int>, n18 <int>,
#> #   n19 <int>, n20 <int>, n21 <int>, n22 <int>, n23 <int>, n24 <int>,
#> #   n25 <int>, n26 <int>, n27 <int>, n28 <int>, n29 <int>, n30 <int>,
#> #   n31 <int>, n32 <int>, n33 <int>, n34 <int>, n35 <int>, n36 <int>,
#> #   n37 <int>, n38 <int>, n39 <int>, n40 <int>, n41 <int>, n42 <int>,
#> #   n43 <int>, n44 <int>, n45 <int>, n46 <int>, n47 <int>, n48 <int>, …
…
