Horns index for each CLOSURE sample — closure_horns_analyze • unsum
…
data_horns
#> $closure_generate_inputs
#> # A tibble: 1 × 7
#>   mean  sd        n scale_min scale_max rounding   threshold
#>   <chr> <chr> <dbl>     <dbl>     <dbl> <chr>          <dbl>
#> 1 2.9   0.5      70         1         5 up_or_down         5
#> 
#> $horns_metrics
#> # A tibble: 1 × 9
#>     mean uniform      sd    cv     mad    min median    max  range
#>    <dbl>   <dbl>   <dbl> <dbl>   <dbl>  <dbl>  <dbl>  <dbl>  <dbl>
#> 1 0.0643     0.5 0.00690 0.107 0.00551 0.0511 0.0654 0.0737 0.0227
#> 
#> $horns_results
#> # A tibble: 219 × 2
#>       id  horns
#>    <int>  <dbl>
#>  1     1 0.0563
#>  2     2 0.0523
#>  3     3 0.0563
#>  4     4 0.0635
#>  5     5 0.0523
#>  6     6 0.0706
#>  7     7 0.0594
#>  8     8 0.0553
#>  9     9 0.0635
#> 10    10 0.0706
#> # ℹ 209 more rows
…
