Generate CLOSURE samples — closure_generate • unsum
…
#>             <int>       <int>      <int> <dbl>         <dbl>
#> 1              15        2492     174440 0.708           0.5
#> 
#> $frequency
#> # A tibble: 5 × 4
#>   value f_average f_absolute f_relative
#>   <int>     <dbl>      <int>      <dbl>
#> 1     1     16.4       40982     0.235 
#> 2     2      7.19      17922     0.103 
#> 3     3      5.29      13172     0.0755
#> 4     4      7.19      17916     0.103 
#> 5     5     33.9       84448     0.484 
#> 
#> $results
#> # A tibble: 2,492 × 2
#>       id sample    
#>    <int> <list>    
#>  1     1 <int [70]>
#>  2     2 <int [70]>
#>  3     3 <int [70]>
#>  4     4 <int [70]>
#>  5     5 <int [70]>
#>  6     6 <int [70]>
#>  7     7 <int [70]>
#>  8     8 <int [70]>
#>  9     9 <int [70]>
#> 10    10 <int [70]>
#> # ℹ 2,482 more rows
…
#>             <int>       <int>      <int>  <dbl>         <dbl>
#> 1              15         219      15330 0.0643           0.5
#> 
#> $frequency
#> # A tibble: 5 × 4
#>   value f_average f_absolute f_relative
#>   <int>     <dbl>      <int>      <dbl>
#> 1     1     1.59         349    0.0228 
#> 2     2     7.42        1626    0.106  
#> 3     3    57.8        12659    0.826  
#> 4     4     2.61         572    0.0373 
#> 5     5     0.566        124    0.00809
#> 
#> $results
#> # A tibble: 219 × 2
#>       id sample    
#>    <int> <list>    
#>  1     1 <int [70]>
#>  2     2 <int [70]>
#>  3     3 <int [70]>
#>  4     4 <int [70]>
#>  5     5 <int [70]>
#>  6     6 <int [70]>
#>  7     7 <int [70]>
#>  8     8 <int [70]>
#>  9     9 <int [70]>
#> 10    10 <int [70]>
#> # ℹ 209 more rows
…
