Create CLOSURE combinations — closure_combine • unsum
…
#>            <int>      <int>      <int> <dbl>         <dbl>
#> 1             15       3682     191464 0.651           0.5
#> 
#> $frequency
#> # A tibble: 5 × 4
#>   value f_average f_absolute f_relative
#>   <int>     <dbl>      <int>      <dbl>
#> 1     1     10.4       38308     0.200 
#> 2     2      6.67      24561     0.128 
#> 3     3      4.88      17983     0.0939
#> 4     4      6.67      24569     0.128 
#> 5     5     23.4       86043     0.449 
#> 
#> $results
#> # A tibble: 3,682 × 2
#>       id combination
#>    <int> <list>     
#>  1     1 <int [52]> 
#>  2     2 <int [52]> 
#>  3     3 <int [52]> 
#>  4     4 <int [52]> 
#>  5     5 <int [52]> 
#>  6     6 <int [52]> 
#>  7     7 <int [52]> 
#>  8     8 <int [52]> 
#>  9     9 <int [52]> 
#> 10    10 <int [52]> 
#> # ℹ 3,672 more rows
…
