Write CLOSURE results to disk (and read them back in) — closure_write • unsum
…
#>             <int>       <int>      <int>  <dbl>         <dbl>
#> 1              15          54       2430 0.0906           0.5
#> 
#> $frequency
#> # A tibble: 5 × 4
#>   value f_average f_absolute f_relative
#>   <int>     <dbl>      <int>      <dbl>
#> 1     1     1.37          74    0.0305 
#> 2     2    12.7          685    0.282  
#> 3     3    29.4         1585    0.652  
#> 4     4     1.37          74    0.0305 
#> 5     5     0.222         12    0.00494
#> 
#> $results
#> # A tibble: 54 × 2
#>       id sample    
#>    <int> <list>    
#>  1     1 <int [45]>
#>  2     2 <int [45]>
#>  3     3 <int [45]>
#>  4     4 <int [45]>
#>  5     5 <int [45]>
#>  6     6 <int [45]>
#>  7     7 <int [45]>
#>  8     8 <int [45]>
#>  9     9 <int [45]>
#> 10    10 <int [45]>
#> # ℹ 44 more rows
…
