Get started • unsum
…
#>             <int>       <int>      <int> <dbl>         <dbl>
#> 1              15       21861    1748880 0.653           0.5
#> 
#> $frequency
#> # A tibble: 5 × 4
#>   value f_average f_absolute f_relative
#>   <int>     <dbl>      <int>      <dbl>
#> 1     1     16.1      352051     0.201 
#> 2     2     10.2      222512     0.127 
#> 3     3      7.51     164251     0.0939
#> 4     4     10.2      222512     0.127 
#> 5     5     36.0      787554     0.450 
#> 
#> $results
#> # A tibble: 21,861 × 2
#>       id sample    
#>    <int> <list>    
#>  1     1 <int [80]>
#>  2     2 <int [80]>
#>  3     3 <int [80]>
#>  4     4 <int [80]>
#>  5     5 <int [80]>
#>  6     6 <int [80]>
#>  7     7 <int [80]>
#>  8     8 <int [80]>
#>  9     9 <int [80]>
#> 10    10 <int [80]>
#> # ℹ 21,851 more rows
…
